<svg xmlns="http://www.w3.org/2000/svg" width="18" height="18">
  <defs>
    <linearGradient id="a" x1="0%" y1="50%" y2="50%">
      <stop offset="0%" stop-color="#86C98B"/>
      <stop offset="49.057%" stop-color="#86D3A4"/>
      <stop offset="100%" stop-color="#7DCAC5"/>
    </linearGradient>
  </defs>
  <circle cx="9" cy="111" r="9" fill="url(#a)" fill-rule="evenodd" transform="translate(0 -102)"/>
</svg>
