<svg width="86" height="86" viewBox="0 0 86 86" version="1.1" xmlns="http://www.w3.org/2000/svg" xmlns:xlink="http://www.w3.org/1999/xlink">
<title>Group 4</title>
<desc>Created using Figma</desc>
<g id="Canvas" transform="translate(-11097 -2520)">
<g id="Group 4">
<g id="Oval Copy" opacity="0.4">
<use xlink:href="#path0_stroke" transform="translate(11123 2546)" fill="url(#paint0_linear)"/>
</g>
<g id="Oval Copy 2" opacity="0.2">
<use xlink:href="#path1_stroke" transform="translate(11112 2535)" fill="url(#paint1_linear)"/>
</g>
<g id="Oval Copy 3" opacity="0.1">
<use xlink:href="#path2_stroke" transform="translate(11098 2521)" fill="url(#paint2_linear)"/>
</g>
<g id="Oval" filter="url(#filter0_d)">
<use xlink:href="#path3_fill" transform="translate(11131 2554)" fill="url(#paint3_linear)"/>
</g>
</g>
</g>
<defs>
<filter id="filter0_d" filterUnits="userSpaceOnUse" x="11127" y="2554" width="26" height="26" color-interpolation-filters="sRGB">
<feFlood flood-opacity="0" result="BackgroundImageFix"/>
<feColorMatrix in="SourceAlpha" type="matrix" values="0 0 0 0 0 0 0 0 0 0 0 0 0 0 0 0 0 0 255 0"/>
<feOffset dx="0" dy="4"/>
<feGaussianBlur stdDeviation="2"/>
<feColorMatrix type="matrix" values="0 0 0 0 0.334893 0 0 0 0 0.54071 0 0 0 0 0.463194 0 0 0 0.312896 0"/>
<feBlend mode="normal" in2="BackgroundImageFix" result="effect1_dropShadow"/>
<feBlend mode="normal" in="SourceGraphic" in2="effect1_dropShadow" result="shape"/>
</filter>
<linearGradient id="paint0_linear" x1="0" y1="0" x2="1" y2="0" gradientUnits="userSpaceOnUse" gradientTransform="matrix(34 34 -34 34 0 0)">
<stop offset="0" stop-color="#86C98B"/>
<stop offset="1" stop-color="#7DCAC5"/>
</linearGradient>
<linearGradient id="paint1_linear" x1="0" y1="0" x2="1" y2="0" gradientUnits="userSpaceOnUse" gradientTransform="matrix(56 56 -56 56 0 0)">
<stop offset="0" stop-color="#86C98B"/>
<stop offset="1" stop-color="#7DCAC5"/>
</linearGradient>
<linearGradient id="paint2_linear" x1="0" y1="0" x2="1" y2="0" gradientUnits="userSpaceOnUse" gradientTransform="matrix(84 84 -84 84 0 0)">
<stop offset="0" stop-color="#86C98B"/>
<stop offset="1" stop-color="#7DCAC5"/>
</linearGradient>
<linearGradient id="paint3_linear" x1="0" y1="0" x2="1" y2="0" gradientUnits="userSpaceOnUse" gradientTransform="matrix(18 -3.9968e-15 3.9968e-15 18 -1.9984e-15 9)">
<stop offset="0" stop-color="#86C98B"/>
<stop offset="0.490573" stop-color="#86D3A4"/>
<stop offset="1" stop-color="#7DCAC5"/>
</linearGradient>
<path id="path0_stroke" d="M 17 34.5C 26.665 34.5 34.5 26.665 34.5 17L 33.5 17C 33.5 26.1127 26.1127 33.5 17 33.5L 17 34.5ZM 34.5 17C 34.5 7.33502 26.665 -0.5 17 -0.5L 17 0.5C 26.1127 0.5 33.5 7.8873 33.5 17L 34.5 17ZM 17 -0.5C 7.33502 -0.5 -0.5 7.33502 -0.5 17L 0.5 17C 0.5 7.8873 7.8873 0.5 17 0.5L 17 -0.5ZM -0.5 17C -0.5 26.665 7.33502 34.5 17 34.5L 17 33.5C 7.8873 33.5 0.5 26.1127 0.5 17L -0.5 17Z"/>
<path id="path1_stroke" d="M 28 56.5C 43.7401 56.5 56.5 43.7401 56.5 28L 55.5 28C 55.5 43.1878 43.1878 55.5 28 55.5L 28 56.5ZM 56.5 28C 56.5 12.2599 43.7401 -0.5 28 -0.5L 28 0.5C 43.1878 0.5 55.5 12.8122 55.5 28L 56.5 28ZM 28 -0.5C 12.2599 -0.5 -0.5 12.2599 -0.5 28L 0.5 28C 0.5 12.8122 12.8122 0.5 28 0.5L 28 -0.5ZM -0.5 28C -0.5 43.7401 12.2599 56.5 28 56.5L 28 55.5C 12.8122 55.5 0.5 43.1878 0.5 28L -0.5 28Z"/>
<path id="path2_stroke" d="M 42 84.5C 65.4721 84.5 84.5 65.4721 84.5 42L 83.5 42C 83.5 64.9198 64.9198 83.5 42 83.5L 42 84.5ZM 84.5 42C 84.5 18.5279 65.4721 -0.5 42 -0.5L 42 0.5C 64.9198 0.5 83.5 19.0802 83.5 42L 84.5 42ZM 42 -0.5C 18.5279 -0.5 -0.5 18.5279 -0.5 42L 0.5 42C 0.5 19.0802 19.0802 0.5 42 0.5L 42 -0.5ZM -0.5 42C -0.5 65.4721 18.5279 84.5 42 84.5L 42 83.5C 19.0802 83.5 0.5 64.9198 0.5 42L -0.5 42Z"/>
<path id="path3_fill" fill-rule="evenodd" d="M 9 18C 13.9706 18 18 13.9706 18 9C 18 4.02944 13.9706 0 9 0C 4.02944 0 0 4.02944 0 9C 0 13.9706 4.02944 18 9 18Z"/>
</defs>
</svg>
