<svg xmlns="http://www.w3.org/2000/svg" xmlns:xlink="http://www.w3.org/1999/xlink" width="342" height="342" viewBox="0 0 342 342">
    <defs>
        <path id="a" d="M0 342h342V0H0z"/>
        <linearGradient id="d" x1="50%" x2="50%" y1="71.434%" y2="0%">
            <stop offset="0%" stop-color="#FFF" stop-opacity="0"/>
            <stop offset="100%" stop-color="#FFF"/>
        </linearGradient>
        <path id="c" d="M0 342h342V0H0z"/>
    </defs>
    <g fill="none" fill-rule="evenodd" opacity=".05">
        <mask id="b" fill="#fff">
            <use xlink:href="#a"/>
        </mask>
        <path fill="#000" d="M329.24 354l-5.24-1.99c1.891-4.982 4.411-9.007 7.707-12.302 3.294-3.295 7.32-5.816 12.303-7.708l1.99 5.24c-4.287 1.627-7.569 3.67-10.33 6.43-2.762 2.762-4.805 6.043-6.43 10.33M309.326 353L304 351.586c.441-1.657.84-3.328 1.237-5 1.952-8.19 3.969-16.662 10.827-23.522 6.86-6.858 15.33-8.876 23.521-10.827 1.671-.399 3.344-.797 5-1.237l1.415 5.325c-1.702.452-3.42.864-5.137 1.272-7.79 1.856-15.146 3.608-20.902 9.363-5.757 5.757-7.508 13.116-9.364 20.903-.409 1.72-.82 3.436-1.271 5.137M284.986 353L281 349.388c4.965-5.483 6.591-12.31 8.313-19.538 1.905-7.996 3.876-16.268 10.571-22.966 6.699-6.695 14.97-8.667 22.968-10.573 7.228-1.719 14.054-3.346 19.537-8.311l3.611 3.984c-6.504 5.894-14.332 7.758-21.902 9.563-7.604 1.81-14.788 3.52-20.409 9.143-5.62 5.62-7.331 12.803-9.143 20.406-1.802 7.569-3.668 15.396-9.56 21.904" mask="url(#b)"/>
        <path fill="#000" d="M230.563 354L228 349.177c5.066-2.692 10.56-4.002 15.873-5.267 7.719-1.837 15.01-3.573 20.716-9.28 5.705-5.705 7.442-12.996 9.28-20.716 1.934-8.119 3.933-16.514 10.732-23.312 6.798-6.798 15.194-8.798 23.312-10.73 7.72-1.84 15.012-3.577 20.716-9.284 5.705-5.704 7.442-12.995 9.28-20.715 1.267-5.312 2.575-10.808 5.267-15.873l4.824 2.563c-2.366 4.448-3.538 9.368-4.778 14.576-1.934 8.12-3.933 16.512-10.73 23.313-6.8 6.798-15.196 8.796-23.314 10.73-7.72 1.84-15.011 3.574-20.715 9.281-5.706 5.705-7.443 12.998-9.28 20.717-1.935 8.12-3.935 16.512-10.731 23.313-6.8 6.798-15.196 8.797-23.314 10.73-5.209 1.24-10.128 2.411-14.575 4.777" mask="url(#b)"/>
        <path fill="#000" d="M202.087 353L197 351.07c1.834-4.836 4.281-8.744 7.483-11.946 6.775-6.775 15.142-8.766 23.232-10.694 7.692-1.832 14.959-3.563 20.645-9.25 5.687-5.686 7.417-12.95 9.248-20.645 1.928-8.09 3.922-16.457 10.695-23.232 6.775-6.775 15.141-8.766 23.231-10.694 7.693-1.832 14.96-3.563 20.646-9.25 5.686-5.686 7.417-12.95 9.247-20.644 1.929-8.09 3.92-16.458 10.697-23.233 3.202-3.202 7.11-5.65 11.946-7.482l1.93 5.088c-4.16 1.576-7.345 3.56-10.028 6.242-5.687 5.688-7.417 12.955-9.25 20.646-1.927 8.091-3.92 16.457-10.693 23.232-6.776 6.776-15.144 8.768-23.233 10.696-7.695 1.831-14.959 3.562-20.644 9.247-5.687 5.687-7.417 12.953-9.25 20.646-1.927 8.089-3.92 16.456-10.693 23.232-6.776 6.775-15.142 8.768-23.233 10.695-7.692 1.832-14.958 3.56-20.644 9.248-2.683 2.684-4.668 5.87-6.245 10.028" mask="url(#b)"/>
        <path fill="#000" d="M181.256 354L176 352.596c.436-1.642.827-3.3 1.22-4.959 1.925-8.133 3.916-16.546 10.687-23.356 6.77-6.81 15.13-8.812 23.214-10.75 7.686-1.842 14.946-3.582 20.63-9.299 5.683-5.713 7.413-13.017 9.243-20.75 1.926-8.133 3.917-16.544 10.686-23.354 6.771-6.807 15.131-8.812 23.216-10.75 7.686-1.842 14.947-3.582 20.63-9.296 5.683-5.714 7.411-13.02 9.243-20.753 1.926-8.13 3.917-16.541 10.686-23.354 6.77-6.807 15.13-8.81 23.214-10.75 1.65-.393 3.3-.788 4.934-1.225l1.397 5.286c-1.68.449-3.376.856-5.07 1.263-7.688 1.843-14.948 3.58-20.629 9.296-5.682 5.715-7.412 13.02-9.243 20.751-1.925 8.134-3.917 16.544-10.686 23.353-6.772 6.81-15.132 8.814-23.216 10.751-7.686 1.842-14.947 3.582-20.63 9.298-5.682 5.715-7.411 13.018-9.242 20.751-1.927 8.131-3.916 16.542-10.688 23.353-6.77 6.81-15.13 8.814-23.214 10.751-7.687 1.842-14.948 3.582-20.63 9.296-5.683 5.717-7.412 13.022-9.242 20.755a202.332 202.332 0 0 1-1.254 5.096M157.023 353L153 349.354c5.012-5.535 6.655-12.425 8.392-19.722 1.923-8.075 3.91-16.425 10.673-23.187 6.761-6.76 15.11-8.75 23.185-10.673 7.678-1.827 14.927-3.554 20.602-9.229 5.676-5.676 7.403-12.927 9.231-20.604 1.924-8.072 3.91-16.422 10.672-23.182 6.763-6.762 15.112-8.75 23.186-10.676 7.678-1.827 14.928-3.554 20.602-9.229 5.675-5.673 7.402-12.924 9.23-20.601 1.924-8.075 3.913-16.425 10.672-23.185 6.763-6.761 15.112-8.75 23.185-10.673 7.297-1.737 14.19-3.38 19.725-8.393l3.645 4.022c-6.566 5.953-14.468 7.835-22.112 9.654-7.675 1.829-14.927 3.556-20.602 9.23-5.673 5.672-7.4 12.925-9.228 20.603-1.924 8.072-3.912 16.422-10.674 23.186-6.76 6.76-15.111 8.748-23.185 10.672-7.677 1.826-14.928 3.553-20.603 9.23-5.675 5.672-7.4 12.925-9.228 20.6-1.925 8.075-3.914 16.425-10.675 23.186-6.761 6.762-15.111 8.748-23.185 10.674-7.678 1.827-14.928 3.554-20.602 9.23-5.676 5.672-7.403 12.925-9.23 20.603-1.82 7.64-3.703 15.543-9.653 22.11" mask="url(#b)"/>
        <path fill="#000" d="M102.55 355l-2.55-4.802c5.043-2.68 10.514-3.985 15.804-5.244 7.685-1.829 14.944-3.558 20.625-9.24 5.682-5.68 7.41-12.938 9.241-20.624 1.926-8.084 3.918-16.442 10.684-23.21 6.77-6.77 15.13-8.76 23.212-10.685 7.685-1.83 14.945-3.56 20.626-9.242 5.681-5.68 7.41-12.939 9.24-20.624 1.926-8.084 3.918-16.442 10.684-23.211 6.77-6.769 15.13-8.76 23.212-10.685 7.685-1.83 14.945-3.559 20.626-9.241 5.68-5.68 7.41-12.939 9.24-20.625 1.925-8.083 3.915-16.441 10.684-23.21 6.769-6.769 15.129-8.76 23.211-10.685 7.686-1.83 14.946-3.56 20.626-9.239 5.68-5.682 7.41-12.94 9.239-20.627 1.262-5.291 2.564-10.763 5.244-15.806l4.802 2.552c-2.354 4.429-3.521 9.327-4.756 14.515-1.925 8.083-3.916 16.442-10.684 23.21-6.77 6.769-15.129 8.758-23.212 10.684-7.686 1.831-14.946 3.56-20.624 9.24-5.681 5.682-7.41 12.94-9.24 20.627-1.926 8.081-3.918 16.44-10.684 23.21-6.77 6.77-15.13 8.759-23.212 10.684-7.685 1.831-14.946 3.558-20.626 9.24-5.682 5.682-7.41 12.94-9.24 20.627-1.926 8.081-3.918 16.44-10.685 23.21-6.77 6.77-15.129 8.759-23.212 10.684-7.684 1.831-14.944 3.558-20.625 9.24-5.682 5.68-7.41 12.94-9.24 20.627-1.926 8.084-3.918 16.44-10.686 23.21-6.769 6.77-15.128 8.759-23.21 10.685-5.187 1.234-10.085 2.4-14.513 4.755M74.113 353L69 351.058c1.845-4.861 4.304-8.789 7.52-12.004 6.808-6.808 15.215-8.81 23.346-10.746 7.731-1.842 15.033-3.581 20.746-9.297 5.713-5.713 7.453-13.013 9.293-20.745 1.937-8.13 3.94-16.537 10.748-23.346 6.808-6.808 15.216-8.809 23.346-10.746 7.73-1.841 15.033-3.58 20.746-9.296 5.715-5.713 7.452-13.013 9.294-20.745 1.937-8.13 3.94-16.538 10.747-23.346 6.809-6.808 15.217-8.81 23.346-10.746 7.73-1.842 15.032-3.581 20.747-9.294 5.715-5.713 7.453-13.017 9.294-20.747 1.936-8.129 3.94-16.536 10.747-23.346 6.808-6.806 15.217-8.81 23.346-10.747 7.73-1.839 15.032-3.578 20.746-9.294 5.715-5.713 7.454-13.014 9.293-20.744 1.937-8.131 3.94-16.538 10.748-23.347 3.214-3.215 7.142-5.676 12.005-7.522L347 80.113c-4.183 1.588-7.387 3.58-10.08 6.276-5.714 5.713-7.453 13.015-9.294 20.747-1.936 8.129-3.939 16.536-10.746 23.346-6.81 6.809-15.216 8.81-23.346 10.747-7.73 1.839-15.033 3.578-20.746 9.294-5.716 5.713-7.454 13.016-9.295 20.744-1.937 8.131-3.94 16.538-10.747 23.346-6.809 6.809-15.216 8.811-23.347 10.747-7.73 1.841-15.03 3.58-20.745 9.294-5.715 5.715-7.453 13.016-9.295 20.747-1.937 8.128-3.94 16.535-10.747 23.346-6.809 6.808-15.217 8.81-23.347 10.747-7.73 1.84-15.03 3.58-20.745 9.293-5.714 5.715-7.453 13.016-9.293 20.747-1.937 8.129-3.94 16.537-10.747 23.346-6.81 6.808-15.217 8.81-23.347 10.748-7.73 1.84-15.033 3.577-20.745 9.292-2.695 2.696-4.69 5.897-6.275 10.08" mask="url(#b)"/>
        <path fill="#000" d="M54.264 353L49 351.602c.435-1.635.826-3.284 1.221-4.934 1.93-8.1 3.922-16.474 10.704-23.257 6.78-6.78 15.152-8.774 23.25-10.703 7.699-1.834 14.971-3.566 20.662-9.258 5.69-5.689 7.423-12.96 9.256-20.66 1.929-8.094 3.922-16.468 10.702-23.251 6.782-6.78 15.156-8.774 23.252-10.703 7.699-1.834 14.971-3.566 20.66-9.256 5.692-5.688 7.424-12.96 9.257-20.659 1.93-8.098 3.923-16.472 10.703-23.254 6.782-6.777 15.155-8.774 23.251-10.703 7.697-1.832 14.97-3.564 20.66-9.256 5.692-5.688 7.423-12.962 9.258-20.661 1.928-8.097 3.923-16.47 10.702-23.25 6.782-6.78 15.154-8.774 23.25-10.703 7.699-1.834 14.971-3.566 20.662-9.258 5.692-5.69 7.423-12.96 9.257-20.66 1.93-8.098 3.924-16.47 10.703-23.251 6.78-6.78 15.153-8.774 23.248-10.703 1.653-.393 3.306-.787 4.943-1.222L346 61.263a198.32 198.32 0 0 1-5.078 1.258c-7.7 1.833-14.97 3.565-20.66 9.255-5.692 5.692-7.423 12.963-9.257 20.662-1.93 8.096-3.924 16.47-10.703 23.251-6.781 6.78-15.154 8.775-23.25 10.704-7.699 1.834-14.971 3.564-20.662 9.255-5.69 5.69-7.423 12.96-9.256 20.66-1.93 8.098-3.922 16.472-10.705 23.253-6.78 6.78-15.153 8.775-23.25 10.704-7.698 1.832-14.97 3.564-20.66 9.255-5.692 5.69-7.423 12.963-9.257 20.663-1.929 8.095-3.922 16.469-10.702 23.248-6.78 6.78-15.153 8.775-23.25 10.704-7.698 1.834-14.972 3.566-20.663 9.257-5.69 5.69-7.423 12.963-9.256 20.66-1.929 8.096-3.923 16.47-10.702 23.251-6.782 6.78-15.155 8.775-23.252 10.704-7.7 1.834-14.97 3.566-20.66 9.255-5.692 5.692-7.424 12.965-9.259 20.665A195.496 195.496 0 0 1 54.264 353" mask="url(#b)"/>
        <path fill="#000" d="M29.056 356L25 352.324c5.054-5.58 6.71-12.532 8.463-19.888 1.939-8.138 3.941-16.557 10.758-23.372 6.817-6.814 15.235-8.821 23.373-10.76 7.74-1.842 15.05-3.583 20.773-9.304 5.722-5.72 7.462-13.033 9.306-20.77 1.94-8.141 3.944-16.56 10.76-23.375 6.817-6.817 15.234-8.821 23.375-10.763 7.74-1.841 15.05-3.583 20.77-9.304 5.721-5.72 7.463-13.03 9.306-20.77 1.94-8.14 3.942-16.56 10.76-23.374 6.818-6.817 15.235-8.822 23.375-10.761 7.74-1.844 15.05-3.585 20.77-9.306 5.72-5.72 7.462-13.03 9.306-20.77 1.94-8.141 3.943-16.56 10.76-23.376 6.816-6.815 15.233-8.82 23.374-10.76 7.74-1.843 15.05-3.585 20.771-9.307 5.722-5.719 7.463-13.031 9.306-20.769 1.939-8.138 3.945-16.557 10.759-23.376 6.818-6.815 15.235-8.82 23.377-10.759 7.355-1.75 14.303-3.405 19.883-8.46L348 37.056c-6.62 5.999-14.585 7.896-22.29 9.73-7.74 1.845-15.051 3.586-20.772 9.307-5.72 5.72-7.462 13.032-9.304 20.77-1.94 8.139-3.945 16.557-10.761 23.376-6.817 6.815-15.236 8.82-23.376 10.76-7.739 1.843-15.05 3.584-20.77 9.304-5.721 5.722-7.461 13.031-9.305 20.772-1.94 8.138-3.944 16.556-10.76 23.375-6.817 6.816-15.236 8.82-23.375 10.76-7.738 1.844-15.05 3.582-20.77 9.305-5.723 5.721-7.464 13.033-9.306 20.771-1.939 8.138-3.945 16.557-10.76 23.376-6.818 6.815-15.235 8.82-23.374 10.76-7.74 1.84-15.05 3.582-20.772 9.304-5.722 5.719-7.463 13.031-9.305 20.77-1.94 8.14-3.946 16.558-10.762 23.375-6.817 6.817-15.234 8.82-23.375 10.762-7.737 1.841-15.049 3.582-20.77 9.305-5.72 5.718-7.461 13.028-9.305 20.766-1.836 7.706-3.73 15.673-9.732 22.296M-16.6 351l-1.4-5.266c1.683-.447 3.381-.853 5.08-1.257 7.703-1.833 14.977-3.565 20.668-9.26 5.693-5.691 7.426-12.965 9.26-20.667 1.93-8.1 3.925-16.476 10.707-23.26 6.784-6.782 15.16-8.777 23.26-10.705 7.7-1.835 14.976-3.568 20.667-9.262 5.694-5.692 7.426-12.968 9.26-20.67 1.93-8.098 3.925-16.474 10.706-23.257 6.784-6.782 15.161-8.777 23.26-10.707 7.701-1.834 14.977-3.566 20.668-9.26 5.694-5.692 7.426-12.966 9.26-20.668 1.93-8.1 3.926-16.476 10.706-23.26 6.785-6.782 15.161-8.777 23.26-10.707 7.701-1.833 14.977-3.566 20.67-9.258 5.691-5.694 7.424-12.968 9.257-20.67 1.93-8.098 3.925-16.475 10.708-23.259 6.784-6.78 15.16-8.777 23.26-10.707 7.7-1.835 14.976-3.566 20.669-9.258 5.691-5.692 7.424-12.968 9.258-20.668 1.93-8.1 3.924-16.477 10.707-23.259 6.783-6.785 15.16-8.778 23.26-10.71 7.701-1.832 14.976-3.565 20.668-9.258 5.692-5.691 7.424-12.965 9.258-20.667.407-1.701.811-3.398 1.258-5.08L343-8.602c-.435 1.638-.828 3.29-1.222 4.944-1.93 8.098-3.924 16.475-10.706 23.26-6.783 6.782-15.16 8.776-23.259 10.706-7.703 1.833-14.977 3.565-20.668 9.26-5.693 5.69-7.426 12.966-9.26 20.666-1.93 8.1-3.925 16.477-10.706 23.26-6.784 6.782-15.16 8.777-23.26 10.706-7.7 1.835-14.977 3.568-20.669 9.262-5.693 5.692-7.425 12.967-9.26 20.668-1.93 8.1-3.925 16.476-10.705 23.259-6.784 6.782-15.161 8.776-23.26 10.706-7.701 1.835-14.976 3.567-20.67 9.26-5.692 5.693-7.424 12.966-9.258 20.67-1.93 8.097-3.926 16.473-10.708 23.258-6.783 6.783-15.16 8.777-23.259 10.706-7.7 1.835-14.976 3.568-20.668 9.26-5.692 5.694-7.425 12.966-9.259 20.667-1.93 8.1-3.924 16.476-10.708 23.262-6.783 6.783-15.16 8.776-23.259 10.706-7.7 1.835-14.976 3.565-20.668 9.26-5.691 5.69-7.424 12.966-9.259 20.67-1.93 8.1-3.924 16.473-10.707 23.258-6.782 6.783-15.16 8.777-23.26 10.706-1.651.394-3.305.786-4.942 1.222M-16.067 330L-18 324.906c4.168-1.583 7.359-3.571 10.046-6.257 5.694-5.695 7.428-12.97 9.262-20.677 1.932-8.104 3.926-16.483 10.713-23.269 6.785-6.785 15.164-8.78 23.268-10.71 7.705-1.836 14.982-3.57 20.677-9.266 5.696-5.694 7.43-12.97 9.264-20.676 1.931-8.104 3.926-16.483 10.712-23.269 6.785-6.786 15.164-8.78 23.268-10.71 7.706-1.836 14.984-3.57 20.678-9.264 5.694-5.694 7.428-12.973 9.262-20.679 1.93-8.101 3.927-16.48 10.712-23.268 6.785-6.784 15.166-8.78 23.269-10.711 7.704-1.833 14.983-3.567 20.677-9.263 5.697-5.694 7.428-12.974 9.263-20.679 1.93-8.102 3.928-16.48 10.712-23.266 6.786-6.789 15.166-8.78 23.27-10.714 7.703-1.833 14.981-3.566 20.677-9.263 5.696-5.694 7.428-12.97 9.263-20.676 1.93-8.104 3.927-16.483 10.712-23.269 6.785-6.786 15.166-8.78 23.268-10.71 7.705-1.836 14.983-3.57 20.678-9.266 2.687-2.689 4.676-5.88 6.254-10.044L323-9.067c-1.836 4.84-4.286 8.755-7.494 11.965-6.787 6.788-15.166 8.782-23.269 10.713-7.705 1.835-14.983 3.566-20.677 9.263-5.697 5.696-7.43 12.972-9.265 20.679-1.93 8.101-3.926 16.48-10.71 23.268-6.787 6.786-15.167 8.78-23.27 10.711-7.705 1.833-14.982 3.567-20.677 9.263-5.695 5.694-7.429 12.971-9.263 20.677-1.932 8.104-3.926 16.483-10.713 23.27-6.786 6.787-15.166 8.781-23.269 10.712-7.704 1.833-14.98 3.566-20.676 9.263-5.696 5.694-7.429 12.973-9.263 20.676-1.93 8.104-3.927 16.483-10.711 23.269-6.787 6.786-15.167 8.781-23.27 10.71-7.705 1.836-14.984 3.57-20.676 9.264-5.696 5.696-7.43 12.973-9.264 20.678-1.931 8.102-3.927 16.481-10.712 23.27-6.786 6.785-15.167 8.78-23.27 10.711-7.705 1.835-14.982 3.568-20.675 9.262-5.696 5.697-7.43 12.976-9.264 20.679-1.93 8.101-3.927 16.482-10.712 23.269-3.206 3.205-7.12 5.657-11.967 7.495" mask="url(#b)"/>
        <path fill="#000" d="M-14.195 301L-19 298.437c2.357-4.447 3.525-9.365 4.76-14.572 1.927-8.116 3.92-16.508 10.694-23.304 6.774-6.792 15.14-8.793 23.228-10.726 7.69-1.838 14.955-3.575 20.642-9.277 5.686-5.701 7.416-12.991 9.248-20.708 1.926-8.113 3.92-16.506 10.692-23.304 6.775-6.792 15.14-8.793 23.228-10.726 7.691-1.836 14.957-3.572 20.642-9.277 5.685-5.701 7.416-12.989 9.247-20.705 1.927-8.117 3.918-16.509 10.692-23.305 6.775-6.795 15.139-8.793 23.229-10.726 7.692-1.838 14.957-3.574 20.641-9.28 5.686-5.702 7.416-12.988 9.249-20.706 1.927-8.116 3.918-16.507 10.692-23.303 6.775-6.795 15.14-8.793 23.228-10.726 7.69-1.838 14.956-3.574 20.64-9.28 5.687-5.702 7.418-12.99 9.249-20.706 1.927-8.116 3.92-16.507 10.692-23.303 6.775-6.795 15.14-8.793 23.228-10.726 5.19-1.242 10.093-2.411 14.525-4.777L292-6.18c-5.047 2.693-10.523 4.002-15.817 5.267-7.691 1.837-14.956 3.573-20.642 9.276-5.685 5.705-7.416 12.992-9.247 20.709-1.928 8.113-3.918 16.505-10.694 23.303-6.774 6.795-15.139 8.794-23.228 10.727-7.69 1.837-14.956 3.57-20.64 9.276-5.685 5.705-7.416 12.992-9.248 20.709-1.927 8.113-3.919 16.506-10.692 23.303-6.776 6.795-15.14 8.794-23.229 10.727-7.693 1.839-14.956 3.572-20.641 9.276-5.686 5.702-7.416 12.992-9.248 20.709-1.927 8.113-3.919 16.506-10.692 23.303-6.775 6.795-15.14 8.794-23.228 10.727-7.692 1.836-14.957 3.572-20.642 9.276-5.685 5.702-7.416 12.992-9.248 20.707-1.927 8.115-3.92 16.508-10.693 23.302-6.774 6.796-15.139 8.795-23.227 10.728-7.692 1.838-14.957 3.574-20.642 9.278-5.685 5.702-7.416 12.99-9.25 20.707-1.259 5.312-2.564 10.806-5.247 15.87M-15.35 246l-3.65-4.028c6.576-5.957 14.488-7.842 22.14-9.666 7.686-1.83 14.945-3.558 20.626-9.24 5.682-5.68 7.41-12.94 9.242-20.626 1.926-8.084 3.915-16.445 10.685-23.213 6.77-6.769 15.13-8.76 23.212-10.686 7.687-1.83 14.945-3.56 20.628-9.242 5.683-5.68 7.41-12.94 9.242-20.626 1.926-8.085 3.917-16.445 10.685-23.214 6.77-6.768 15.127-8.76 23.212-10.685 7.687-1.831 14.947-3.56 20.628-9.243 5.682-5.68 7.411-12.939 9.241-20.626 1.927-8.082 3.916-16.444 10.686-23.214 6.77-6.768 15.13-8.759 23.213-10.684 7.687-1.832 14.946-3.56 20.627-9.241 5.682-5.68 7.41-12.941 9.242-20.628 1.822-7.652 3.706-15.564 9.663-22.138L238-7.35c-5.02 5.541-6.662 12.442-8.402 19.747-1.925 8.085-3.916 16.445-10.686 23.214-6.77 6.769-15.13 8.76-23.212 10.685-7.685 1.831-14.947 3.56-20.627 9.24-5.683 5.683-7.41 12.944-9.24 20.629-1.927 8.084-3.919 16.444-10.687 23.214-6.77 6.768-15.13 8.759-23.214 10.685-7.687 1.83-14.946 3.56-20.626 9.24-5.683 5.682-7.411 12.941-9.241 20.628-1.926 8.082-3.918 16.442-10.687 23.214-6.77 6.768-15.129 8.76-23.212 10.685-7.686 1.831-14.946 3.558-20.628 9.24s-7.41 12.942-9.242 20.629c-1.924 8.082-3.916 16.442-10.686 23.213-6.768 6.769-15.127 8.757-23.21 10.683-7.306 1.741-14.208 3.384-19.75 8.404M-16.602 223L-18 217.74a206.05 206.05 0 0 1 5.076-1.257c7.695-1.832 14.962-3.563 20.649-9.252 5.688-5.687 7.419-12.954 9.25-20.649 1.93-8.09 3.922-16.461 10.698-23.238 6.778-6.777 15.146-8.77 23.239-10.698 7.695-1.832 14.962-3.563 20.649-9.25 5.687-5.688 7.418-12.955 9.25-20.65 1.928-8.091 3.921-16.46 10.697-23.238 6.778-6.775 15.147-8.768 23.239-10.698 7.693-1.83 14.96-3.562 20.648-9.25 5.689-5.686 7.419-12.956 9.252-20.65 1.928-8.092 3.922-16.46 10.696-23.239 6.778-6.776 15.147-8.77 23.24-10.697 7.693-1.831 14.961-3.562 20.65-9.25 5.687-5.687 7.418-12.956 9.251-20.651.405-1.697.81-3.393 1.256-5.073L215-8.603c-.435 1.636-.827 3.287-1.22 4.937-1.928 8.093-3.921 16.462-10.698 23.241-6.778 6.775-15.147 8.769-23.239 10.696-7.694 1.831-14.962 3.562-20.65 9.251-5.686 5.686-7.417 12.953-9.25 20.648-1.928 8.093-3.923 16.462-10.698 23.239-6.777 6.778-15.146 8.769-23.238 10.699-7.693 1.83-14.962 3.562-20.65 9.25-5.686 5.687-7.417 12.956-9.249 20.65-1.928 8.093-3.92 16.46-10.698 23.237-6.776 6.777-15.145 8.769-23.237 10.697-7.695 1.833-14.964 3.564-20.65 9.25-5.688 5.69-7.418 12.958-9.25 20.652-1.929 8.093-3.922 16.461-10.698 23.238-6.776 6.777-15.146 8.768-23.238 10.696-1.652.394-3.302.787-4.939 1.222" mask="url(#b)"/>
        <path fill="#000" d="M-16.069 203L-18 197.885c4.162-1.587 7.352-3.583 10.04-6.28 5.689-5.717 7.42-13.025 9.254-20.758 1.93-8.136 3.923-16.548 10.705-23.363 6.78-6.81 15.152-8.815 23.25-10.753 7.7-1.84 14.971-3.58 20.663-9.3 5.69-5.719 7.423-13.024 9.256-20.76 1.929-8.134 3.923-16.546 10.704-23.359 6.78-6.814 15.153-8.814 23.251-10.755 7.7-1.84 14.971-3.58 20.662-9.3 5.69-5.716 7.423-13.022 9.256-20.758 1.929-8.136 3.924-16.548 10.703-23.36 6.781-6.813 15.155-8.815 23.252-10.753 7.698-1.843 14.972-3.583 20.662-9.302 2.684-2.697 4.67-5.903 6.25-10.084L195-9.06c-1.837 4.865-4.286 8.795-7.49 12.015-6.782 6.812-15.156 8.815-23.252 10.753-7.699 1.843-14.97 3.58-20.661 9.3-5.691 5.719-7.424 13.023-9.257 20.76-1.929 8.134-3.923 16.546-10.702 23.36-6.782 6.813-15.156 8.816-23.253 10.754-7.7 1.84-14.971 3.58-20.661 9.3-5.691 5.716-7.423 13.022-9.256 20.757-1.93 8.136-3.925 16.549-10.704 23.361-6.782 6.815-15.156 8.815-23.253 10.756-7.7 1.84-14.971 3.58-20.66 9.3-5.692 5.716-7.424 13.024-9.257 20.76-1.93 8.133-3.925 16.545-10.704 23.358-3.206 3.22-7.118 5.682-11.959 7.526" mask="url(#b)"/>
        <path fill="#000" d="M-14.178 173L-19 170.438c2.365-4.447 3.537-9.369 4.776-14.577 1.934-8.115 3.933-16.508 10.73-23.305 6.797-6.797 15.19-8.795 23.307-10.728 7.716-1.839 15.005-3.575 20.71-9.28 5.706-5.704 7.442-12.992 9.28-20.71 1.933-8.118 3.933-16.51 10.728-23.307 6.798-6.797 15.191-8.795 23.307-10.728 7.717-1.839 15.007-3.575 20.711-9.28 5.705-5.704 7.441-12.994 9.279-20.71 1.933-8.118 3.931-16.51 10.728-23.307 6.798-6.797 15.19-8.795 23.306-10.728 5.21-1.242 10.128-2.412 14.576-4.778L165-6.178c-5.065 2.693-10.56 4.001-15.872 5.267-7.718 1.837-15.006 3.573-20.711 9.277-5.705 5.705-7.44 12.994-9.278 20.712-1.934 8.115-3.933 16.507-10.728 23.307-6.798 6.796-15.191 8.795-23.307 10.729-7.718 1.837-15.008 3.571-20.711 9.277-5.706 5.706-7.441 12.994-9.28 20.712-1.933 8.115-3.932 16.509-10.73 23.307-6.796 6.796-15.189 8.795-23.305 10.729-7.718 1.839-15.006 3.573-20.711 9.277-5.705 5.703-7.44 12.992-9.28 20.71-1.264 5.316-2.574 10.81-5.265 15.874M-15.335 119L-19 114.954c6.602-5.98 14.545-7.874 22.23-9.703 7.718-1.839 15.006-3.575 20.712-9.281 5.706-5.703 7.443-12.995 9.28-20.71 1.934-8.118 3.932-16.513 10.729-23.31 6.798-6.796 15.192-8.795 23.31-10.73 7.717-1.838 15.005-3.574 20.711-9.278 5.705-5.703 7.442-12.994 9.279-20.713 1.83-7.681 3.724-15.625 9.704-22.229L111-7.335c-5.04 5.564-6.691 12.493-8.436 19.829-1.934 8.118-3.934 16.512-10.732 23.31-6.797 6.796-15.19 8.795-23.306 10.728-7.718 1.84-15.008 3.576-20.713 9.28-5.705 5.704-7.442 12.994-9.28 20.712-1.933 8.115-3.931 16.51-10.73 23.308-6.798 6.798-15.191 8.797-23.308 10.73-7.337 1.747-14.265 3.399-19.83 8.438M-16.606 95L-18 89.756c1.676-.445 3.368-.849 5.06-1.253 7.671-1.827 14.916-3.552 20.585-9.22 5.67-5.67 7.395-12.917 9.223-20.588 1.922-8.066 3.908-16.409 10.663-23.163 6.756-6.758 15.098-8.743 23.166-10.667 7.671-1.825 14.916-3.55 20.583-9.221 5.671-5.671 7.397-12.918 9.224-20.587.404-1.694.806-3.382 1.252-5.057L87-8.607a188.13 188.13 0 0 0-1.217 4.92c-1.922 8.068-3.91 16.412-10.666 23.17-6.753 6.755-15.096 8.741-23.163 10.663-7.671 1.825-14.916 3.551-20.585 9.222-5.67 5.668-7.395 12.915-9.222 20.586-1.922 8.066-3.91 16.41-10.665 23.165-6.755 6.754-15.098 8.741-23.165 10.663-1.646.392-3.292.784-4.923 1.218" mask="url(#b)"/>
        <path fill="#000" d="M-16.052 75L-18 69.865c4.202-1.595 7.418-3.598 10.127-6.306 5.74-5.74 7.487-13.075 9.336-20.842C3.41 34.547 5.42 26.1 12.262 19.26c6.84-6.84 15.287-8.85 23.455-10.797 7.766-1.85 15.102-3.597 20.842-9.34C59.267-3.586 61.27-6.802 62.864-11L68-9.052C66.149-4.169 63.678-.224 60.445 3.01c-6.842 6.843-15.289 8.853-23.457 10.8-7.764 1.85-15.102 3.595-20.842 9.337-5.74 5.742-7.488 13.078-9.337 20.844C4.863 52.157 2.85 60.603-3.989 67.446c-3.231 3.23-7.177 5.703-12.063 7.554M-14.174 45L-19 42.435c2.367-4.45 3.54-9.374 4.78-14.588 1.936-8.124 3.937-16.525 10.74-23.327C3.323-2.283 11.725-4.283 19.848-6.218 25.061-7.461 29.984-8.632 34.435-11L37-6.174C31.93-3.48 26.43-2.17 21.115-.902 13.39.937 6.095 2.675.385 8.383c-5.71 5.711-7.448 13.006-9.29 20.731-1.264 5.318-2.575 10.817-5.269 15.886" mask="url(#b)"/>
        <use fill="url(#d)" xlink:href="#c"/>
    </g>
</svg>
